\relax 
\citation{Linne2018}
\citation{Satoi2016a}
\citation{Enoshima2018a}
\citation{Enoshima2018b}
\@writefile{toc}{\contentsline {section}{\numberline {1}はじめに}{1}}
\citation{Satoi2016a}
\citation{Tu1994}
\citation{Reynolds1987}
\@writefile{toc}{\contentsline {section}{\numberline {2}関連研究}{2}}
\@writefile{toc}{\contentsline {subsection}{\numberline {2.1}魚類の遊泳シミュレーション}{2}}
\citation{Satoi2016a}
\citation{Vinc2019}
\citation{Setozaki2006}
\citation{Yatani2004}
\citation{Nemoto2005}
\citation{Shoji1989}
\citation{Inoue2012}
\citation{Inoue2012}
\citation{Inoue2012}
\@writefile{toc}{\contentsline {subsection}{\numberline {2.2}Unified Motion Planner}{3}}
\@writefile{toc}{\contentsline {subsection}{\numberline {2.3}バーチャル体験}{3}}
\@writefile{toc}{\contentsline {subsection}{\numberline {2.4}学習体験}{3}}
\@writefile{toc}{\contentsline {subsection}{\numberline {2.5}ゲーミフィケーション}{4}}
\@writefile{toc}{\contentsline {section}{\numberline {3}システム概要}{4}}
\@writefile{toc}{\contentsline {subsection}{\numberline {3.1}シミュレーション計算に基づく遊泳表現}{4}}
\@writefile{toc}{\contentsline {subsection}{\numberline {3.2}ストーリーに沿った学習体験}{4}}
\@writefile{toc}{\contentsline {subsection}{\numberline {3.3}インタラクティブ要素}{4}}
\citation{ryo2012}
\@writefile{lof}{\contentsline {figure}{\numberline {1}{\ignorespaces System architecture}}{5}}
\newlabel{fig:SystemDiagram}{{1}{5}}
\@writefile{toc}{\contentsline {section}{\numberline {4}海洋生物に関する知見と学習内容}{5}}
\@writefile{toc}{\contentsline {subsection}{\numberline {4.1}舞台となる海域-相模湾}{5}}
\@writefile{lof}{\contentsline {figure}{\numberline {2}{\ignorespaces View of Sagami Bay}}{5}}
\newlabel{fig:SagamiBay}{{2}{5}}
\@writefile{toc}{\contentsline {subsection}{\numberline {4.2}魚類の生態}{5}}
\citation{rayner1967role}
\citation{Kimura2010}
\citation{aeroaqua2010}
\citation{rayner1967role}
\citation{Kimura2010}
\@writefile{toc}{\contentsline {subsection}{\numberline {4.3}魚類の泳法}{6}}
\@writefile{lof}{\contentsline {figure}{\numberline {3}{\ignorespaces All type of Swimming form and Swimming form to appear in this System}}{6}}
\newlabel{fig:SwimmingForm}{{3}{6}}
\@writefile{toc}{\contentsline {subsection}{\numberline {4.4}ひれの使い方}{6}}
\@writefile{toc}{\contentsline {subsection}{\numberline {4.5}筋肉}{6}}
\@writefile{lof}{\contentsline {figure}{\numberline {4}{\ignorespaces Muscle of fish}}{6}}
\newlabel{fig:Muscle}{{4}{6}}
\@writefile{toc}{\contentsline {subsection}{\numberline {4.6}食性}{6}}
\@writefile{toc}{\contentsline {subsection}{\numberline {4.7}生息場所・遊泳範囲}{6}}
\citation{Iwabuchi1987}
\citation{Utashiro1971}
\citation{Horikoshi1962}
\@writefile{toc}{\contentsline {subsection}{\numberline {4.8}海洋環境と海流}{7}}
\@writefile{toc}{\contentsline {subsection}{\numberline {4.9}総合的な学習項目}{7}}
\@writefile{toc}{\contentsline {section}{\numberline {5}システム構成}{7}}
\@writefile{toc}{\contentsline {subsection}{\numberline {5.1}ストーリー構成}{7}}
\@writefile{toc}{\contentsline {subsection}{\numberline {5.2}フィールド構成}{7}}
\@writefile{toc}{\contentsline {subsection}{\numberline {5.3}テキスト表示}{8}}
\@writefile{toc}{\contentsline {subsection}{\numberline {5.4}操作方法}{8}}
\@writefile{lof}{\contentsline {figure}{\numberline {5}{\ignorespaces Field map}}{8}}
\newlabel{fig:Field}{{5}{8}}
\@writefile{lot}{\contentsline {table}{\numberline {1}{\ignorespaces Input method}}{8}}
\newlabel{tbl:InputMethod}{{1}{8}}
\@writefile{toc}{\contentsline {subsection}{\numberline {5.5}登場する魚}{8}}
\@writefile{toc}{\contentsline {subsection}{\numberline {5.6}魚の遊泳区域指定}{8}}
\@writefile{lof}{\contentsline {figure}{\numberline {6}{\ignorespaces Trunkfish (Scene1), Porcupine fish (Scene1)}}{9}}
\newlabel{fig:FishImg1}{{6}{9}}
\@writefile{lof}{\contentsline {figure}{\numberline {7}{\ignorespaces Cupid wrasse (Scene2), Japanese horse (Scene3) mackerel}}{9}}
\newlabel{fig:FishImg2}{{7}{9}}
\@writefile{toc}{\contentsline {subsection}{\numberline {5.7}プロット}{9}}
\@writefile{lof}{\contentsline {figure}{\numberline {8}{\ignorespaces Japanese pilchard (Scene4), Yellowfin tuna (Scene4)}}{9}}
\newlabel{fig:FishImg3}{{8}{9}}
\@writefile{lot}{\contentsline {table}{\numberline {2}{\ignorespaces System plot}}{10}}
\newlabel{tbl:Plot}{{2}{10}}
\@writefile{toc}{\contentsline {subsection}{\numberline {5.8}カメラワーク}{10}}
\@writefile{lof}{\contentsline {figure}{\numberline {9}{\ignorespaces A:Default, B:FixedCamera, C:FollowTarget, D:FollowTargetGroup}}{10}}
\newlabel{fig:Camerawork_set}{{9}{10}}
\@writefile{toc}{\contentsline {section}{\numberline {6}実装結果}{11}}
\@writefile{lof}{\contentsline {figure}{\numberline {10}{\ignorespaces Field state: Before entering the sea}}{11}}
\newlabel{fig:play01}{{10}{11}}
\@writefile{lof}{\contentsline {figure}{\numberline {11}{\ignorespaces Observe fish and listen to the guide}}{11}}
\newlabel{fig:play02}{{11}{11}}
\@writefile{lof}{\contentsline {figure}{\numberline {12}{\ignorespaces Arrive at a new place}}{11}}
\newlabel{fig:play03}{{12}{11}}
\@writefile{lof}{\contentsline {figure}{\numberline {13}{\ignorespaces Explanation of swimming method and muscle}}{11}}
\newlabel{fig:play04}{{13}{11}}
\@writefile{toc}{\contentsline {section}{\numberline {7}まとめ}{11}}
\bibdata{PJ-Aquarium}
\bibcite{Linne2018}{1}
\bibcite{Satoi2016a}{2}
\bibcite{Enoshima2018a}{3}
\bibcite{Enoshima2018b}{4}
\bibcite{Tu1994}{5}
\bibcite{Reynolds1987}{6}
\bibcite{Vinc2019}{7}
\bibcite{Setozaki2006}{8}
\bibcite{Yatani2004}{9}
\@writefile{lof}{\contentsline {figure}{\numberline {14}{\ignorespaces Tuna chasing sardines}}{12}}
\newlabel{fig:play05}{{14}{12}}
\@writefile{lof}{\contentsline {figure}{\numberline {15}{\ignorespaces Field state: Tuna chasing sardines}}{12}}
\newlabel{fig:play06}{{15}{12}}
\bibcite{Nemoto2005}{10}
\bibcite{Shoji1989}{11}
\bibcite{Inoue2012}{12}
\bibcite{ryo2012}{13}
\bibcite{rayner1967role}{14}
\bibcite{Kimura2010}{15}
\bibcite{aeroaqua2010}{16}
\bibcite{Iwabuchi1987}{17}
\bibcite{Utashiro1971}{18}
\bibcite{Horikoshi1962}{19}
\bibstyle{junsrt}
