\relax 
\citation{Linne2018}
\citation{Satoi2016a}
\citation{Enoshima2018a}
\citation{Enoshima2018b}
\citation{Satoi2016a}
\citation{Tu1994}
\citation{Reynolds1987}
\citation{Satoi2016a}
\citation{Vinc2019}
\citation{ryo2012}
\citation{rayner1967role}
\citation{Kimura2010}
\citation{aeroaqua2010}
\citation{rayner1967role}
\citation{Kimura2010}
\citation{Iwabuchi1987}
\citation{Utashiro1971}
\citation{Horikoshi1962}
\bibdata{PJ-Aquarium}
\bibstyle{junsrt}
\@writefile{toc}{\contentsline {section}{はじめに}{}}
\@writefile{toc}{\contentsline {section}{関連研究}{}}
\@writefile{toc}{\contentsline {subsection}{魚類の遊泳シミュレーション}{}}
\@writefile{toc}{\contentsline {subsection}{Unified Motion Planner}{}}
\@writefile{toc}{\contentsline {subsection}{ヴァーチャル体験}{}}
\@writefile{toc}{\contentsline {subsection}{教育コンテンツ}{}}
\@writefile{toc}{\contentsline {section}{システム概要}{}}
\newlabel{fig:SystemDiagram}{{}{}}
\@writefile{toc}{\contentsline {section}{コンテンツ概要}{}}
\@writefile{toc}{\contentsline {subsection}{舞台となる海域-相模湾}{}}
\newlabel{fig:SagamiBay}{{}{}}
\@writefile{toc}{\contentsline {subsection}{魚類の生態}{}}
\@writefile{toc}{\contentsline {subsection}{魚類の泳法}{}}
\newlabel{fig:SwimmingForm}{{}{}}
\@writefile{toc}{\contentsline {subsection}{ひれの使い方}{}}
\@writefile{toc}{\contentsline {subsection}{筋肉}{}}
\newlabel{fig:Muscle}{{}{}}
\@writefile{toc}{\contentsline {subsection}{食性}{}}
\@writefile{toc}{\contentsline {subsection}{生息場所・遊泳範囲}{}}
\@writefile{toc}{\contentsline {subsection}{海洋環境と海流}{}}
\@writefile{toc}{\contentsline {subsection}{総合的な学習項目}{}}
\@writefile{toc}{\contentsline {section}{システムとコンテンツ内容}{}}
\@writefile{toc}{\contentsline {subsection}{ストーリー構成}{}}
\@writefile{toc}{\contentsline {subsection}{ステージ構成}{}}
\newlabel{fig:Field}{{}{}}
\@writefile{toc}{\contentsline {subsection}{テキスト表示}{}}
\@writefile{toc}{\contentsline {subsection}{操作方法}{}}
\newlabel{tbl:InputMethod}{{}{}}
\@writefile{toc}{\contentsline {subsection}{登場する魚}{}}
\newlabel{fig:FishImg1}{{}{}}
\newlabel{fig:FishImg2}{{}{}}
\newlabel{fig:FishImg3}{{}{}}
\@writefile{toc}{\contentsline {subsection}{魚の遊泳区域指定}{}}
\@writefile{toc}{\contentsline {subsection}{プロット}{}}
\newlabel{tbl:Plot}{{}{}}
\newlabel{fig:Screen1}{{}{}}
\newlabel{fig:Scren2}{{}{}}
\@writefile{toc}{\contentsline {subsection}{カメラワーク}{}}
\newlabel{tbl:CameraWork}{{}{}}
\newlabel{fig:Camerawork1}{{}{}}
\newlabel{fig:Camerawork2}{{}{}}
\@writefile{toc}{\contentsline {section}{実験}{}}
\@writefile{toc}{\contentsline {section}{まとめ・改善点}{}}
