\relax 
\@writefile{toc}{\contentsline {section}{\numberline {1}序論}{1}}
\@writefile{toc}{\contentsline {subsection}{\numberline {1.1}用紙}{1}}
\@writefile{toc}{\contentsline {subsection}{\numberline {1.2}ヘッダ・フッタ}{1}}
\@writefile{toc}{\contentsline {subsection}{\numberline {1.3}1ページ目の体裁}{1}}
\@writefile{toc}{\contentsline {subsection}{\numberline {1.4}要約・キーワード}{1}}
\@writefile{toc}{\contentsline {subsection}{\numberline {1.5}本文}{1}}
\citation{osamu}
\bibcite{osamu}{1}
\@writefile{lof}{\contentsline {figure}{\numberline {1}{\ignorespaces Sample figure}}{2}}
\newlabel{fig:samplefigure}{{1}{2}}
\@writefile{lot}{\contentsline {table}{\numberline {1}{\ignorespaces Sample table}}{2}}
\newlabel{tbl:sampletable}{{1}{2}}
\@writefile{toc}{\contentsline {subsection}{\numberline {1.6}図表}{2}}
\@writefile{toc}{\contentsline {subsection}{\numberline {1.7}数式}{2}}
\newlabel{eq:gauss}{{1}{2}}
\@writefile{toc}{\contentsline {subsection}{\numberline {1.8}参考文献}{2}}
\@writefile{toc}{\contentsline {subsection}{\numberline {1.9}著者紹介}{2}}
\@writefile{toc}{\contentsline {subsection}{\numberline {1.10}付録}{2}}
\@writefile{toc}{\contentsline {section}{\numberline {2}\LaTeX  スタイルファイルについて}{2}}
